{
    "requiresCompatibilities": [
        "FARGATE"
    ],
    "containerDefinitions": [
        {
            "name": "db",
            "image": "postgres:12",
            "memoryReservation": 128,
            "resourceRequirements": [],
            "essential": true,
            "portMappings": [
                {
                    "containerPort": 5432,
                    "protocol": "tcp"
                }
            ],
            "environment": [
                {
                    "name": "POSTGRES_PASSWORD",
                    "value": "password"
                },
                {
                    "name": "POSTGRES_USER",
                    "value": "myprojectuser"
                },
                {
                    "name": "POSTGRES_DB",
                    "value": "myproject"
                },
                {
                    "name": "PGDATA",
                    "value": "/var/lib/postgresql/data/pgdata"
                }
            ],
            "environmentFiles": [],
            "secrets": [],
            "mountPoints": [],
            "volumesFrom": [],
            "extraHosts": [],
            "logConfiguration": {
                "logDriver": "awslogs",
                "options": {
                    "awslogs-group": "/ecs/db-task-def",
                    "awslogs-region": "ap-south-1",
                    "awslogs-stream-prefix": "ecs"
                }
            },
            "ulimits": [],
            "dockerLabels": {},
            "dependsOn": []
        }
    ],
    "volumes": [],
    "networkMode": "awsvpc",
    "memory": "512",
    "cpu": "256",
    "executionRoleArn": "arn:aws:iam::988830324420:role/ecsTaskExecutionRole",
    "family": "db-task-def",
    "placementConstraints": [],
    "tags": [
    		{
		    "key": "Name",
		    "value": "db-task-def"
        	}
        ]
}